﻿{
	"components": [
		{
			"type": "Cryptography.RSA.UI.ResourceProvider, Cryptography.RSA.UI",
			"services": [
				{
					"type": "Cryptography.Host.UI.Abstract.IResourceProvider, Cryptography.Host.UI"
				}
			]
		},
		{
			"type": "Cryptography.RSA.UI.VisualActions.RSAVisualActions, Cryptography.RSA.UI",
			"services": [
				{
					"type": "Cryptography.Host.Api.VisualActions.VisualActionContainer, Cryptography.Host.Api"
				}
			]
		},
		{
			"type": "Cryptography.RSA.UI.Documents.RSAProviderAttackDocument, Cryptography.RSA.UI",
			"services": [
				{
					"type": "Cryptography.RSA.UI.Documents.RSAProviderAttackDocument, Cryptography.RSA.UI"
				},
				{
					"type": "Cryptography.Host.Api.Abstract.IDocument, Cryptography.Host.Api", 
					"key": "RSAProviderAttackDocument"
				}
			]
		}
	]
}
