﻿{
	"components": [
		{
			"type": "Cryptography.Math.Services.FactorizeService, Cryptography.Math",
			"services": [
				{
					"type": "Cryptography.Math.Abstract.IFactorizeService, Cryptography.Math"
				}
			]
		},
		{
			"type": "Cryptography.Math.Services.ChineseReminderService, Cryptography.Math",
			"services": [
				{
					"type": "Cryptography.Math.Abstract.IChineseReminderService, Cryptography.Math"
				}
			]
		},
		{
			"type": "Cryptography.Math.Services.TransposDecompPermut, Cryptography.Math",
			"services": [
				{
					"type": "Cryptography.Math.Abstract.ITransposDecompPermut, Cryptography.Math"
				}
			]
		}
	]
}
